digraph Tree {
node [shape=box] ;
0 [label="X[0] <= 3.5\nmse = 0.95\nsamples = 24\nvalue = 0.066"] ;
1 [label="X[0] <= 1.5\nmse = 0.809\nsamples = 4\nvalue = -0.827"] ;
0 -> 1 [labeldistance=2.5, labelangle=45, headlabel="True"] ;
2 [label="mse = 0.0\nsamples = 1\nvalue = -1.66"] ;
1 -> 2 ;
3 [label="X[0] <= 2.5\nmse = 0.771\nsamples = 3\nvalue = -0.55"] ;
1 -> 3 ;
4 [label="mse = 0.0\nsamples = 1\nvalue = 0.67"] ;
3 -> 4 ;
5 [label="mse = 0.04\nsamples = 2\nvalue = -1.16"] ;
3 -> 5 ;
6 [label="X[0] <= 6.5\nmse = 0.786\nsamples = 20\nvalue = 0.245"] ;
0 -> 6 [labeldistance=2.5, labelangle=-45, headlabel="False"] ;
7 [label="X[0] <= 4.5\nmse = 0.926\nsamples = 6\nvalue = 0.038"] ;
6 -> 7 ;
8 [label="mse = 1.259\nsamples = 3\nvalue = 0.257"] ;
7 -> 8 ;
9 [label="X[0] <= 5.5\nmse = 0.498\nsamples = 3\nvalue = -0.18"] ;
7 -> 9 ;
10 [label="mse = 0.74\nsamples = 2\nvalue = -0.13"] ;
9 -> 10 ;
11 [label="mse = 0.0\nsamples = 1\nvalue = -0.28"] ;
9 -> 11 ;
12 [label="X[0] <= 9.5\nmse = 0.7\nsamples = 14\nvalue = 0.334"] ;
6 -> 12 ;
13 [label="X[0] <= 7.5\nmse = 0.62\nsamples = 11\nvalue = 0.436"] ;
12 -> 13 ;
14 [label="mse = 0.468\nsamples = 4\nvalue = 0.25"] ;
13 -> 14 ;
15 [label="mse = 0.675\nsamples = 7\nvalue = 0.543"] ;
13 -> 15 ;
16 [label="mse = 0.814\nsamples = 3\nvalue = -0.043"] ;
12 -> 16 ;
}